{
    "session": {
        "secret": "a-session-secret"
    },
    "oauth": {
        "client_id": "421aa3cab98e4838a825b106163217a1",
        "client_secret": "$2b$24$G3Y4uNra4BmGsurLMshlIe"
    },
    "apps": {
        "trusted_origins": [],
        "trusted_hostnames": ["_"]
    }
}
